…
# Print results to console
print("--- Staff Count by Division ---")
```

```
## [1] "--- Staff Count by Division ---"
```

``` r
print(org_summary)
```

```
## # A tibble: 23 x 3
##    Directorate                                              Division Staff_Count
##    <chr>                                                    <chr>          <int>
##  1 Animal Sciences Welfare And Ethics Directorate           Kenya S~           1
##  2 Animal Sciences Welfare And Ethics Directorate           Laborat~           1
##  3 Animal Sciences Welfare And Ethics Directorate           Nationa~           4
##  4 Animal Sciences Welfare And Ethics Directorate           Veterin~           9
##  5 Animal Sciences Welfare And Ethics Directorate           Welfare~          11
##  6 Capacity Building Partnership And Grant Management Dire~ Human R~           1
##  7 Capacity Building Partnership And Grant Management Dire~ Partner~           3
##  8 Corporate Services Directorate                           Corpora~           4
##  9 Corporate Services Directorate                           Finance~           4
## 10 Corporate Services Directorate                           Human R~           5
## # i 13 more rows
```
…
